Division,WeightClassKg,Place,Name,Team,BodyweightKg,Best3SquatKg,Best3BenchKg,Best3DeadliftKg,TotalKg,Equipment,Event,Sex
Boys,51.71,1,Jesus Perez,Kemp,50.35,102.06,65.77,117.93,285.76,Single-ply,SBD,M
Boys,51.71,2,John Hernandez,Malakoff,50.35,102.06,45.36,111.13,258.55,Single-ply,SBD,M
Boys,51.71,3,Dustin Miller,Malakoff,50.8,83.91,49.9,102.06,235.87,Single-ply,SBD,M
Boys,55.79,1,Cody Fonville,Frankston,55.34,88.45,61.23,124.74,274.42,Single-ply,SBD,M
Boys,59.87,1,Brett Butler,Mabank,58.06,170.1,99.79,165.56,435.45,Single-ply,SBD,M
Boys,59.87,2,Jalen Burns,Palestine Westwood,59.87,140.61,61.23,151.95,353.8,Single-ply,SBD,M
Boys,59.87,3,Caleb Terrell,Frankston,57.61,113.4,74.84,151.95,340.19,Single-ply,SBD,M
Boys,59.87,4,Brice Harrington,Frankston,57.15,133.81,61.23,136.08,331.12,Single-ply,SBD,M
Boys,59.87,5,Trent Fischer,Kemp,58.06,113.4,72.57,140.61,326.59,Single-ply,SBD,M
Boys,59.87,6,James Kimbrell,Kemp,57.61,117.93,63.5,142.88,324.32,Single-ply,SBD,M
Boys,59.87,7,Mason Coker,Malakoff,59.87,90.72,54.43,111.13,256.28,Single-ply,SBD,M
Boys,59.87,DQ,Wade Horn,Malakoff,58.51,,,,,Single-ply,SBD,M
Boys,67.13,1,Olice Rogers,Kemp,65.77,185.97,111.13,195.04,492.15,Single-ply,SBD,M
Boys,67.13,2,Wayne Wernicke,Kemp,64.86,163.29,90.72,158.76,412.77,Single-ply,SBD,M
Boys,67.13,3,Humberto Chavez,Frankston,64.86,170.1,83.91,156.49,410.5,Single-ply,SBD,M
Boys,67.13,4,Colt Conway,Mabank,64.41,163.29,92.99,151.95,408.23,Single-ply,SBD,M
Boys,67.13,5,Garrett Haley,Kemp,65.77,154.22,86.18,147.42,387.82,Single-ply,SBD,M
Boys,67.13,6,Brant Thayer,Grand Saline,63.05,151.95,77.11,142.88,371.95,Single-ply,SBD,M
Boys,67.13,7,Omar Gonzales,Malakoff,65.32,131.54,70.31,163.29,365.14,Single-ply,SBD,M
Boys,67.13,8,Ovan Jenkins,Frankston,60.33,158.76,61.23,142.88,362.87,Single-ply,SBD,M
Boys,67.13,9,Tre Staples,Frankston,66.22,129.27,72.57,142.88,344.73,Single-ply,SBD,M
Boys,67.13,10,Andy Gibson,Grand Saline,61.69,120.2,81.65,136.08,337.93,Single-ply,SBD,M
Boys,67.13,11,Brad Curtis #1,Canton,63.05,136.08,63.5,136.08,335.66,Single-ply,SBD,M
Boys,67.13,12,Aj Dixon,Malakoff,66.68,127.01,79.38,127.01,333.39,Single-ply,SBD,M
Boys,67.13,13,Felipe Reyes,Malakoff,66.22,124.74,79.38,127.01,331.12,Single-ply,SBD,M
Boys,67.13,14,Dylan Grimm,Malakoff,64.86,129.27,74.84,124.74,328.85,Single-ply,SBD,M
Boys,67.13,15,Masson Henderson,Malakoff,63.05,111.13,68.04,131.54,310.71,Single-ply,SBD,M
Boys,74.84,1,Caleb Williams #2,Frankston,74.84,174.63,106.59,229.06,510.29,Single-ply,SBD,M
Boys,74.84,2,Jamie Chan,Palestine Westwood,73.48,163.29,120.2,195.04,478.54,Single-ply,SBD,M
Boys,74.84,3,Drake Barnica,Kemp,72.57,165.56,102.06,176.9,444.52,Single-ply,SBD,M
Boys,74.84,4,Emmanuel Gonzales,Malakoff,71.67,156.49,81.65,181.44,419.57,Single-ply,SBD,M
Boys,74.84,5,Marquise Harris,Canton,67.59,167.83,88.45,145.15,401.43,Single-ply,SBD,M
Boys,74.84,6,Zack Brister,Palestine Westwood,73.48,145.15,92.99,161.03,399.16,Single-ply,SBD,M
Boys,74.84,7,Kirkland Terrell,Malakoff,73.94,151.95,79.38,165.56,396.89,Single-ply,SBD,M
Boys,74.84,8,Cade Gray,Grand Saline,69.85,140.61,90.72,158.76,390.09,Single-ply,SBD,M
Boys,74.84,9,Zane Koskelin,Mabank,72.12,147.42,92.99,147.42,387.82,Single-ply,SBD,M
Boys,74.84,10,Braylon Cable,Malakoff,71.67,117.93,95.25,163.29,376.48,Single-ply,SBD,M
Boys,74.84,11,Zack Jarrett,Malakoff,68.04,124.74,65.77,151.95,342.46,Single-ply,SBD,M
Boys,74.84,12,Sawyer Means,Grand Saline,73.03,95.25,61.23,124.74,281.23,Single-ply,SBD,M
Boys,74.84,DQ,Keelen Clark,Canton,74.39,,,,,Single-ply,SBD,M
Boys,82.1,1,Colby Mcleod,Grand Saline,78.47,149.69,83.91,181.44,415.04,Single-ply,SBD,M
Boys,82.1,2,Gabriel Cruces,Malakoff,79.38,136.08,58.97,151.95,347,Single-ply,SBD,M
Boys,82.1,3,Wally Shrout,Malakoff,81.19,122.47,81.65,136.08,340.19,Single-ply,SBD,M
Boys,82.1,DQ,Rawling Dixon,Malakoff,77.11,127.01,,,,Single-ply,SBD,M
Boys,89.81,1,Marcos Garza,Mabank,88.45,197.31,145.15,204.12,546.58,Single-ply,SBD,M
Boys,89.81,2,Dylan Schnieider,Mabank,82.64,179.17,138.35,165.56,483.08,Single-ply,SBD,M
Boys,89.81,3,Corey Rosa,Malakoff,89.81,170.1,102.06,158.76,430.91,Single-ply,SBD,M
Boys,89.81,4,Lucas Russell,Mabank,89.36,147.42,113.4,165.56,426.38,Single-ply,SBD,M
Boys,89.81,5,Brett Workman,Frankston,83.91,174.63,83.91,165.56,424.11,Single-ply,SBD,M
Boys,89.81,6,Brandon Clark,Grand Saline,84.82,124.74,108.86,154.22,387.82,Single-ply,SBD,M
Boys,89.81,DQ,Logan Jhonson,Canton,86.64,192.78,,,,Single-ply,SBD,M
Boys,99.79,1,Ben Dillon,Kemp,91.63,213.19,124.74,201.85,539.77,Single-ply,SBD,M
Boys,99.79,2,John Velez,Mabank,95.71,233.6,131.54,174.63,539.77,Single-ply,SBD,M
Boys,99.79,3,Trey Jenkins,Palestine Westwood,96.62,172.37,104.33,181.44,458.13,Single-ply,SBD,M
Boys,99.79,4,Jordan VanOver,Mabank,97.52,170.1,102.06,170.1,442.25,Single-ply,SBD,M
Boys,99.79,5,Kyle Walker #2,Grand Saline,95.25,158.76,113.4,165.56,437.72,Single-ply,SBD,M
Boys,99.79,6,Justin Caldwell,Frankston,97.98,149.69,97.52,158.76,405.97,Single-ply,SBD,M
Boys,99.79,7,Kevin Valladares,Palestine Westwood,92.99,158.76,81.65,142.88,383.29,Single-ply,SBD,M
Boys,99.79,8,Montrelle Williams,Malakoff,95.25,136.08,90.72,136.08,362.87,Single-ply,SBD,M
Boys,99.79,9,Jb Medley,Canton,92.99,142.88,97.52,113.4,353.8,Single-ply,SBD,M
Boys,99.79,DQ,Diego Medina,Malakoff,99.79,,,,,Single-ply,SBD,M
Boys,109.77,1,Nelson Ochoa,Malakoff,105.23,215.46,102.06,185.97,503.49,Single-ply,SBD,M
Boys,109.77,2,Collin Martian,Mabank,107.95,185.97,124.74,170.1,480.81,Single-ply,SBD,M
Boys,109.77,3,Jj Yummer,Frankston,103.42,170.1,90.72,183.7,444.52,Single-ply,SBD,M
Boys,109.77,4,Kolton Barker,Malakoff,105.23,158.76,90.72,181.44,430.91,Single-ply,SBD,M
Boys,109.77,DQ,Jordan Maraggia,Mabank,104.78,,,,,Single-ply,SBD,M
Boys,124.74,1,Israel Chavez,Malakoff,115.21,167.83,102.06,149.69,419.57,Single-ply,SBD,M
Boys,124.74,2,John Ross,Frankston,111.13,151.95,92.99,149.69,394.63,Single-ply,SBD,M
Boys,124.74,DQ,Jacob Busch,Canton,113.4,,,,,Single-ply,SBD,M
Boys,124.74,DQ,Ke'Adric Nelson,Canton,111.58,254.01,,,,Single-ply,SBD,M
Boys,124.74+,1,Keenan Ivory,Canton,147.87,217.72,77.11,163.29,458.13,Single-ply,SBD,M
Boys,124.74+,2,Garrett Barnes,Grand Saline,129.27,151.95,86.18,167.83,405.97,Single-ply,SBD,M
